^D:\USERS\MJ9617\DOCUMENTS\VISUAL STUDIO 2013\PROJECTS\OPENGL-BOOK\DEPS\SIMPLE OPENGL IMAGE LIBRARY\PROJECTS\VC9\DEBUG\IMAGE_DXT.OBJ|D:\USERS\MJ9617\DOCUMENTS\VISUAL STUDIO 2013\PROJECTS\OPENGL-BOOK\DEPS\SIMPLE OPENGL IMAGE LIBRARY\PROJECTS\VC9\DEBUG\IMAGE_HELPER.OBJ|D:\USERS\MJ9617\DOCUMENTS\VISUAL STUDIO 2013\PROJECTS\OPENGL-BOOK\DEPS\SIMPLE OPENGL IMAGE LIBRARY\PROJECTS\VC9\DEBUG\SOIL.OBJ|D:\USERS\MJ9617\DOCUMENTS\VISUAL STUDIO 2013\PROJECTS\OPENGL-BOOK\DEPS\SIMPLE OPENGL IMAGE LIBRARY\PROJECTS\VC9\DEBUG\STB_IMAGE_AUG.OBJ
C:\WINDOWS\GLOBALIZATION\SORTING\SORTDEFAULT.NLS
C:\WINDOWS\SYSTEM32\TZRES.DLL
D:\USERS\MJ9617\DOCUMENTS\VISUAL STUDIO 2013\PROJECTS\OPENGL-BOOK\DEPS\SIMPLE OPENGL IMAGE LIBRARY\PROJECTS\VC9\DEBUG\IMAGE_DXT.OBJ
D:\USERS\MJ9617\DOCUMENTS\VISUAL STUDIO 2013\PROJECTS\OPENGL-BOOK\DEPS\SIMPLE OPENGL IMAGE LIBRARY\PROJECTS\VC9\DEBUG\IMAGE_HELPER.OBJ
D:\USERS\MJ9617\DOCUMENTS\VISUAL STUDIO 2013\PROJECTS\OPENGL-BOOK\DEPS\SIMPLE OPENGL IMAGE LIBRARY\PROJECTS\VC9\DEBUG\SOIL.OBJ
D:\USERS\MJ9617\DOCUMENTS\VISUAL STUDIO 2013\PROJECTS\OPENGL-BOOK\DEPS\SIMPLE OPENGL IMAGE LIBRARY\PROJECTS\VC9\DEBUG\STB_IMAGE_AUG.OBJ
